module gitlab.com/thorchain/thornode/v3

go 1.23.4

// overrides
replace (
	// use cosmos fork of keyring
	github.com/99designs/keyring => github.com/cosmos/keyring v1.2.0
	github.com/agl/ed25519 => github.com/binance-chain/edwards25519 v0.0.0-20200305024217-f36fc4b53d43
	github.com/binance-chain/tss-lib => gitlab.com/thorchain/tss/tss-lib v0.1.5
	// dgrijalva/jwt-go is deprecated and doesn't receive security updates.
	// See: https://github.com/cosmos/cosmos-sdk/issues/13134
	github.com/dgrijalva/jwt-go => github.com/golang-jwt/jwt/v4 v4.4.2

	// Optimum fork of go-ethereum
	github.com/ethereum/go-ethereum => github.com/ethereum-optimism/op-geth v1.101411.1
	// Fix upstream GHSA-h395-qcrw-5vmq vulnerability.
	// See: https://github.com/cosmos/cosmos-sdk/issues/10409
	github.com/gin-gonic/gin => github.com/gin-gonic/gin v1.8.1
	github.com/spf13/viper => github.com/spf13/viper v1.17.0 // v1.18+ breaks app overrides

	// pin version! 126854af5e6d has issues with the store so that queries fail
	github.com/syndtr/goleveldb => github.com/syndtr/goleveldb v1.0.1-0.20210819022825-2ae1ddf74ef7
	github.com/tendermint/go-amino => github.com/binance-chain/bnc-go-amino v0.14.1-binance.1
	nhooyr.io/websocket => nhooyr.io/websocket v1.8.17
)

require (
	cosmossdk.io/api v0.7.6
	cosmossdk.io/client/v2 v2.0.0-beta.1.0.20240118205803-02b5997c5192
	cosmossdk.io/core v0.11.1
	cosmossdk.io/errors v1.0.1
	cosmossdk.io/log v1.4.1
	cosmossdk.io/math v1.4.0
	cosmossdk.io/store v1.1.1
	cosmossdk.io/tools/confix v0.1.2
	cosmossdk.io/x/tx v0.13.7
	cosmossdk.io/x/upgrade v0.1.4
	filippo.io/age v1.0.0-rc.3
	github.com/99designs/keyring v1.2.1
	github.com/CosmWasm/wasmd v0.53.0
	github.com/CosmWasm/wasmvm/v2 v2.1.2 // indirect
	github.com/binance-chain/tss-lib v0.0.0-20201118045712-70b2cb4bf916
	github.com/blang/semver v3.5.1+incompatible
	github.com/btcsuite/btcd v0.22.1
	github.com/btcsuite/btcd/chaincfg/chainhash v1.0.1
	github.com/btcsuite/btclog v0.0.0-20170628155309-84c8d2346e9f
	github.com/btcsuite/btcutil v1.0.3-0.20211129182920-9c4bbabe7acd
	github.com/cenkalti/backoff v2.2.1+incompatible
	github.com/cometbft/cometbft v0.38.12
	github.com/cosmos/cosmos-db v1.1.0
	github.com/cosmos/cosmos-proto v1.0.0-beta.5
	github.com/cosmos/cosmos-sdk v0.50.11
	github.com/cosmos/go-bip39 v1.0.0
	github.com/cosmos/gogogateway v1.2.0
	github.com/cosmos/gogoproto v1.7.0
	github.com/davecgh/go-spew v1.1.2-0.20180830191138-d8f796af33cc
	github.com/deckarep/golang-set v1.8.0
	github.com/decred/dcrd/dcrec/edwards v1.0.0
	github.com/decred/dcrd/dcrec/secp256k1 v1.0.4
	github.com/eager7/dogd v0.0.0-20200427085516-2caf59f59dbb
	github.com/eager7/doglog v0.0.0-20200427040431-a0db59f0a792
	github.com/eager7/dogutil v0.0.0-20200427040807-200e961ba4b5
	github.com/ethereum/go-ethereum v1.14.11
	github.com/gcash/bchd v0.17.1
	github.com/gcash/bchlog v0.0.0-20180913005452-b4f036f92fa6
	github.com/gcash/bchutil v0.0.0-20201025062739-fc759989ee3e
	github.com/gogo/protobuf v1.3.2
	github.com/golang/protobuf v1.5.4
	github.com/google/go-cmp v0.6.0
	github.com/google/uuid v1.6.0
	github.com/gorilla/mux v1.8.1
	github.com/grpc-ecosystem/grpc-gateway v1.16.0
	github.com/hashicorp/go-metrics v0.5.3
	github.com/hashicorp/go-multierror v1.1.1
	github.com/hashicorp/go-retryablehttp v0.7.4
	github.com/hashicorp/golang-lru v1.0.2
	github.com/ipfs/go-log v1.0.5
	github.com/itchio/lzma v0.0.0-20190703113020-d3e24e3e3d49
	github.com/jinzhu/copier v0.3.5
	github.com/json-iterator/go v1.1.12
	github.com/kzahedi/goent v0.0.0-20190403094137-49773660fa36
	github.com/libp2p/go-libp2p v0.11.0
	github.com/libp2p/go-libp2p-core v0.6.1
	github.com/libp2p/go-libp2p-discovery v0.5.0
	github.com/libp2p/go-libp2p-kad-dht v0.10.0
	github.com/libp2p/go-libp2p-peerstore v0.2.6
	github.com/libp2p/go-libp2p-testing v0.2.0
	github.com/ltcsuite/ltcd v0.20.1-beta.0.20201210074626-c807bfe31ef0
	github.com/ltcsuite/ltcutil v1.0.2-beta
	github.com/magiconair/properties v1.8.7
	github.com/mitchellh/mapstructure v1.5.0
	github.com/multiformats/go-multiaddr v0.3.1
	github.com/olekukonko/tablewriter v0.0.5
	github.com/pkg/errors v0.9.1
	github.com/prometheus/client_golang v1.20.1
	github.com/prometheus/client_model v0.6.1
	github.com/rs/zerolog v1.33.0
	github.com/spf13/cast v1.7.0
	github.com/spf13/cobra v1.8.1
	github.com/spf13/pflag v1.0.5
	github.com/spf13/viper v1.19.0
	github.com/stretchr/testify v1.9.0
	github.com/syndtr/goleveldb v1.0.1-0.20220721030215-126854af5e6d
	github.com/tendermint/btcd v0.1.1
	go.uber.org/atomic v1.11.0
	golang.org/x/crypto v0.27.0
	golang.org/x/oauth2 v0.22.0
	golang.org/x/sync v0.8.0
	golang.org/x/text v0.18.0
	golang.org/x/tools v0.21.1-0.20240508182429-e35e4ccd0d2d
	google.golang.org/genproto/googleapis/api v0.0.0-20240814211410-ddb44dafa142
	google.golang.org/grpc v1.67.1
	google.golang.org/protobuf v1.35.1
	gopkg.in/check.v1 v1.0.0-20201130134442-10cb98267c6c
	gopkg.in/yaml.v2 v2.4.0
	gopkg.in/yaml.v3 v3.0.1
)

require (
	cloud.google.com/go v0.114.0 // indirect
	cloud.google.com/go/auth v0.5.1 // indirect
	cloud.google.com/go/auth/oauth2adapt v0.2.2 // indirect
	cloud.google.com/go/compute/metadata v0.5.0 // indirect
	cloud.google.com/go/iam v1.1.8 // indirect
	cloud.google.com/go/storage v1.40.0 // indirect
	cosmossdk.io/collections v0.4.0 // indirect
	cosmossdk.io/depinject v1.1.0 // indirect
	cosmossdk.io/x/evidence v0.1.1 // indirect
	cosmossdk.io/x/feegrant v0.1.1 // indirect
	filippo.io/edwards25519 v1.0.0 // indirect
	github.com/99designs/go-keychain v0.0.0-20191008050251-8e49817e8af4 // indirect
	github.com/BurntSushi/toml v1.4.0 // indirect
	github.com/DataDog/datadog-go v3.2.0+incompatible // indirect
	github.com/DataDog/zstd v1.5.6-0.20230824185856-869dae002e5e // indirect
	github.com/Microsoft/go-winio v0.6.2 // indirect
	github.com/StackExchange/wmi v1.2.1 // indirect
	github.com/VictoriaMetrics/fastcache v1.12.2 // indirect
	github.com/aead/siphash v1.0.1 // indirect
	github.com/agl/ed25519 v0.0.0-20200225211852-fd4d107ace12 // indirect
	github.com/aws/aws-sdk-go v1.44.224 // indirect
	github.com/benbjohnson/clock v1.3.0 // indirect
	github.com/beorn7/perks v1.0.1 // indirect
	github.com/bgentry/go-netrc v0.0.0-20140422174119-9fd32a8b3d3d // indirect
	github.com/bgentry/speakeasy v0.1.1-0.20220910012023-760eaf8b6816 // indirect
	github.com/bits-and-blooms/bitset v1.13.0 // indirect
	github.com/btcsuite/btcd/btcec/v2 v2.3.4 // indirect
	github.com/cenkalti/backoff/v4 v4.1.3 // indirect
	github.com/cespare/xxhash v1.1.0 // indirect
	github.com/cespare/xxhash/v2 v2.3.0 // indirect
	github.com/chzyer/readline v1.5.1 // indirect
	github.com/cockroachdb/apd/v2 v2.0.2 // indirect
	github.com/cockroachdb/errors v1.11.3 // indirect
	github.com/cockroachdb/fifo v0.0.0-20240606204812-0bbfbd93a7ce // indirect
	github.com/cockroachdb/logtags v0.0.0-20230118201751-21c54148d20b // indirect
	github.com/cockroachdb/pebble v1.1.2 // indirect
	github.com/cockroachdb/redact v1.1.5 // indirect
	github.com/cockroachdb/tokenbucket v0.0.0-20230807174530-cc333fc44b06 // indirect
	github.com/cometbft/cometbft-db v0.11.0 // indirect
	github.com/consensys/bavard v0.1.13 // indirect
	github.com/consensys/gnark-crypto v0.12.1 // indirect
	github.com/coreos/go-semver v0.3.0 // indirect
	github.com/cosmos/btcutil v1.0.5 // indirect
	github.com/cosmos/iavl v1.2.4 // indirect
	github.com/cosmos/ibc-go/modules/capability v1.0.1 // indirect
	github.com/cosmos/ibc-go/v8 v8.4.0 // indirect
	github.com/cosmos/ics23/go v0.11.0 // indirect
	github.com/cosmos/ledger-cosmos-go v0.13.3 // indirect
	github.com/crate-crypto/go-ipa v0.0.0-20240223125850-b1e8a79f509c // indirect
	github.com/crate-crypto/go-kzg-4844 v1.0.0 // indirect
	github.com/creachadair/atomicfile v0.3.1 // indirect
	github.com/creachadair/tomledit v0.0.24 // indirect
	github.com/danieljoos/wincred v1.1.2 // indirect
	github.com/davidlazar/go-crypto v0.0.0-20200604182044-b73af7476f6c // indirect
	github.com/dchest/siphash v1.2.2 // indirect
	github.com/deckarep/golang-set/v2 v2.6.0 // indirect
	github.com/decred/dcrd/dcrec/edwards/v2 v2.0.0 // indirect
	github.com/decred/dcrd/dcrec/secp256k1/v2 v2.0.0 // indirect
	github.com/decred/dcrd/dcrec/secp256k1/v4 v4.2.0 // indirect
	github.com/desertbit/timer v0.0.0-20180107155436-c41aec40b27f // indirect
	github.com/dgraph-io/badger/v2 v2.2007.4 // indirect
	github.com/dgraph-io/ristretto v0.1.1 // indirect
	github.com/dgryski/go-farm v0.0.0-20200201041132-a6ae2369ad13 // indirect
	github.com/distribution/reference v0.5.0 // indirect
	github.com/dustin/go-humanize v1.0.1 // indirect
	github.com/dvsekhvalnov/jose2go v1.6.0 // indirect
	github.com/emicklei/dot v1.6.2 // indirect
	github.com/ethereum-optimism/superchain-registry/superchain v0.0.0-20240828144951-4e6edcb7d36c // indirect
	github.com/ethereum/c-kzg-4844 v1.0.0 // indirect
	github.com/ethereum/go-verkle v0.1.1-0.20240829091221-dffa7562dbe9 // indirect
	github.com/fatih/color v1.16.0 // indirect
	github.com/felixge/httpsnoop v1.0.4 // indirect
	github.com/flynn/noise v0.0.0-20180327030543-2492fe189ae6 // indirect
	github.com/fsnotify/fsnotify v1.7.0 // indirect
	github.com/getsentry/sentry-go v0.27.0 // indirect
	github.com/go-kit/kit v0.12.0 // indirect
	github.com/go-kit/log v0.2.1 // indirect
	github.com/go-logfmt/logfmt v0.6.0 // indirect
	github.com/go-logr/logr v1.4.1 // indirect
	github.com/go-logr/stdr v1.2.2 // indirect
	github.com/go-ole/go-ole v1.3.0 // indirect
	github.com/godbus/dbus v0.0.0-20190726142602-4481cbc300e2 // indirect
	github.com/gofrs/flock v0.8.1 // indirect
	github.com/gogo/googleapis v1.4.1 // indirect
	github.com/golang/glog v1.2.2 // indirect
	github.com/golang/groupcache v0.0.0-20210331224755-41bb18bfe9da // indirect
	github.com/golang/mock v1.6.0 // indirect
	github.com/golang/snappy v0.0.5-0.20220116011046-fa5810519dcb // indirect
	github.com/google/btree v1.1.3 // indirect
	github.com/google/gofuzz v1.2.0 // indirect
	github.com/google/gopacket v1.1.18 // indirect
	github.com/google/orderedcode v0.0.1 // indirect
	github.com/google/s2a-go v0.1.7 // indirect
	github.com/googleapis/enterprise-certificate-proxy v0.3.2 // indirect
	github.com/googleapis/gax-go/v2 v2.12.5 // indirect
	github.com/gorilla/handlers v1.5.2 // indirect
	github.com/gorilla/websocket v1.5.3 // indirect
	github.com/grpc-ecosystem/go-grpc-middleware v1.4.0 // indirect
	github.com/gsterjov/go-libsecret v0.0.0-20161001094733-a6f4afe4910c // indirect
	github.com/hashicorp/errwrap v1.1.0 // indirect
	github.com/hashicorp/go-cleanhttp v0.5.2 // indirect
	github.com/hashicorp/go-getter v1.7.5 // indirect
	github.com/hashicorp/go-hclog v1.5.0 // indirect
	github.com/hashicorp/go-immutable-radix v1.3.1 // indirect
	github.com/hashicorp/go-plugin v1.5.2 // indirect
	github.com/hashicorp/go-safetemp v1.0.0 // indirect
	github.com/hashicorp/go-version v1.6.0 // indirect
	github.com/hashicorp/golang-lru/v2 v2.0.7 // indirect
	github.com/hashicorp/hcl v1.0.0 // indirect
	github.com/hashicorp/yamux v0.1.1 // indirect
	github.com/hdevalence/ed25519consensus v0.1.0 // indirect
	github.com/holiman/bloomfilter/v2 v2.0.3 // indirect
	github.com/holiman/uint256 v1.3.1 // indirect
	github.com/huandu/skiplist v1.2.0 // indirect
	github.com/huin/goupnp v1.3.0 // indirect
	github.com/iancoleman/strcase v0.3.0 // indirect
	github.com/improbable-eng/grpc-web v0.15.0 // indirect
	github.com/inconshreveable/mousetrap v1.1.0 // indirect
	github.com/ipfs/go-cid v0.0.7 // indirect
	github.com/ipfs/go-datastore v0.4.5 // indirect
	github.com/ipfs/go-ipfs-util v0.0.2 // indirect
	github.com/ipfs/go-ipns v0.0.2 // indirect
	github.com/ipfs/go-log/v2 v2.1.3 // indirect
	github.com/jackpal/go-nat-pmp v1.0.2 // indirect
	github.com/jbenet/go-temp-err-catcher v0.1.0 // indirect
	github.com/jbenet/goprocess v0.1.4 // indirect
	github.com/jmespath/go-jmespath v0.4.0 // indirect
	github.com/jmhodges/levigo v1.0.0 // indirect
	github.com/kkdai/bstream v1.0.0 // indirect
	github.com/klauspost/compress v1.17.9 // indirect
	github.com/klauspost/cpuid/v2 v2.2.6 // indirect
	github.com/koron/go-ssdp v0.0.0-20191105050749-2e1c40ed0b5d // indirect
	github.com/kr/pretty v0.3.1 // indirect
	github.com/kr/text v0.2.0 // indirect
	github.com/kylelemons/godebug v1.1.0 // indirect
	github.com/lib/pq v1.10.7 // indirect
	github.com/libp2p/go-addr-util v0.0.2 // indirect
	github.com/libp2p/go-buffer-pool v0.1.0 // indirect
	github.com/libp2p/go-cidranger v1.1.0 // indirect
	github.com/libp2p/go-conn-security-multistream v0.2.0 // indirect
	github.com/libp2p/go-eventbus v0.2.1 // indirect
	github.com/libp2p/go-flow-metrics v0.0.3 // indirect
	github.com/libp2p/go-libp2p-asn-util v0.0.0-20200825225859-85005c6cf052 // indirect
	github.com/libp2p/go-libp2p-autonat v0.3.2 // indirect
	github.com/libp2p/go-libp2p-blankhost v0.2.0 // indirect
	github.com/libp2p/go-libp2p-circuit v0.3.1 // indirect
	github.com/libp2p/go-libp2p-kbucket v0.4.7 // indirect
	github.com/libp2p/go-libp2p-loggables v0.1.0 // indirect
	github.com/libp2p/go-libp2p-mplex v0.2.4 // indirect
	github.com/libp2p/go-libp2p-nat v0.0.6 // indirect
	github.com/libp2p/go-libp2p-netutil v0.1.0 // indirect
	github.com/libp2p/go-libp2p-noise v0.1.1 // indirect
	github.com/libp2p/go-libp2p-pnet v0.2.0 // indirect
	github.com/libp2p/go-libp2p-record v0.1.3 // indirect
	github.com/libp2p/go-libp2p-swarm v0.2.8 // indirect
	github.com/libp2p/go-libp2p-tls v0.1.3 // indirect
	github.com/libp2p/go-libp2p-transport-upgrader v0.3.0 // indirect
	github.com/libp2p/go-libp2p-yamux v0.2.8 // indirect
	github.com/libp2p/go-mplex v0.1.3 // indirect
	github.com/libp2p/go-msgio v0.0.6 // indirect
	github.com/libp2p/go-nat v0.0.5 // indirect
	github.com/libp2p/go-netroute v0.1.3 // indirect
	github.com/libp2p/go-openssl v0.0.7 // indirect
	github.com/libp2p/go-reuseport v0.0.2 // indirect
	github.com/libp2p/go-reuseport-transport v0.0.4 // indirect
	github.com/libp2p/go-sockaddr v0.1.0 // indirect
	github.com/libp2p/go-stream-muxer-multistream v0.3.0 // indirect
	github.com/libp2p/go-tcp-transport v0.2.1 // indirect
	github.com/libp2p/go-ws-transport v0.3.1 // indirect
	github.com/libp2p/go-yamux v1.3.8 // indirect
	github.com/linxGnu/grocksdb v1.8.14 // indirect
	github.com/manifoldco/promptui v0.9.0 // indirect
	github.com/mattn/go-colorable v0.1.13 // indirect
	github.com/mattn/go-isatty v0.0.20 // indirect
	github.com/mattn/go-runewidth v0.0.13 // indirect
	github.com/minio/highwayhash v1.0.2 // indirect
	github.com/minio/sha256-simd v1.0.1 // indirect
	github.com/mitchellh/go-homedir v1.1.0 // indirect
	github.com/mitchellh/go-testing-interface v1.14.1 // indirect
	github.com/mmcloughlin/addchain v0.4.0 // indirect
	github.com/modern-go/concurrent v0.0.0-20180306012644-bacd9c7ef1dd // indirect
	github.com/modern-go/reflect2 v1.0.2 // indirect
	github.com/mr-tron/base58 v1.2.0 // indirect
	github.com/mtibben/percent v0.2.1 // indirect
	github.com/multiformats/go-base32 v0.1.0 // indirect
	github.com/multiformats/go-base36 v0.2.0 // indirect
	github.com/multiformats/go-multiaddr-dns v0.2.0 // indirect
	github.com/multiformats/go-multiaddr-fmt v0.1.0 // indirect
	github.com/multiformats/go-multiaddr-net v0.2.0 // indirect
	github.com/multiformats/go-multibase v0.2.0 // indirect
	github.com/multiformats/go-multihash v0.2.3 // indirect
	github.com/multiformats/go-multistream v0.1.2 // indirect
	github.com/multiformats/go-varint v0.0.7 // indirect
	github.com/munnerz/goautoneg v0.0.0-20191010083416-a7dc8b61c822 // indirect
	github.com/oasisprotocol/curve25519-voi v0.0.0-20230904125328-1f23a7beb09a // indirect
	github.com/oklog/run v1.1.0 // indirect
	github.com/opencontainers/go-digest v1.0.0 // indirect
	github.com/opentracing/opentracing-go v1.2.0 // indirect
	github.com/otiai10/primes v0.0.0-20180210170552-f6d2a1ba97c4 // indirect
	github.com/pelletier/go-toml/v2 v2.2.2 // indirect
	github.com/petermattis/goid v0.0.0-20231207134359-e60b3f734c67 // indirect
	github.com/pmezard/go-difflib v1.0.1-0.20181226105442-5d4384ee4fb2 // indirect
	github.com/prometheus/common v0.55.0 // indirect
	github.com/prometheus/procfs v0.15.1 // indirect
	github.com/rcrowley/go-metrics v0.0.0-20201227073835-cf1acfcdf475 // indirect
	github.com/rivo/uniseg v0.2.0 // indirect
	github.com/rogpeppe/go-internal v1.12.0 // indirect
	github.com/rs/cors v1.11.1 // indirect
	github.com/sagikazarmark/locafero v0.4.0 // indirect
	github.com/sagikazarmark/slog-shim v0.1.0 // indirect
	github.com/sasha-s/go-deadlock v0.3.1 // indirect
	github.com/shamaton/msgpack/v2 v2.2.0 // indirect
	github.com/shirou/gopsutil v3.21.4-0.20210419000835-c7a38de76ee5+incompatible // indirect
	github.com/sourcegraph/conc v0.3.0 // indirect
	github.com/spacemonkeygo/spacelog v0.0.0-20180420211403-2296661a0572 // indirect
	github.com/spaolacci/murmur3 v1.1.0 // indirect
	github.com/spf13/afero v1.11.0 // indirect
	github.com/subosito/gotenv v1.6.0 // indirect
	github.com/supranational/blst v0.3.13 // indirect
	github.com/tendermint/go-amino v0.16.0 // indirect
	github.com/tidwall/btree v1.7.0 // indirect
	github.com/tklauser/go-sysconf v0.3.12 // indirect
	github.com/tklauser/numcpus v0.6.1 // indirect
	github.com/ulikunitz/xz v0.5.11 // indirect
	github.com/whyrusleeping/go-keyspace v0.0.0-20160322163242-5b898ac5add1 // indirect
	github.com/whyrusleeping/multiaddr-filter v0.0.0-20160516205228-e903e4adabd7 // indirect
	github.com/zondax/hid v0.9.2 // indirect
	github.com/zondax/ledger-go v0.14.3 // indirect
	go.etcd.io/bbolt v1.3.10 // indirect
	go.opencensus.io v0.24.0 // indirect
	go.opentelemetry.io/contrib/instrumentation/google.golang.org/grpc/otelgrpc v0.49.0 // indirect
	go.opentelemetry.io/contrib/instrumentation/net/http/otelhttp v0.49.0 // indirect
	go.opentelemetry.io/otel v1.24.0 // indirect
	go.opentelemetry.io/otel/metric v1.24.0 // indirect
	go.opentelemetry.io/otel/trace v1.24.0 // indirect
	go.uber.org/goleak v1.1.12 // indirect
	go.uber.org/multierr v1.11.0 // indirect
	go.uber.org/zap v1.24.0 // indirect
	golang.org/x/exp v0.0.0-20240404231335-c0f41cb1a7a0 // indirect
	golang.org/x/mod v0.20.0 // indirect
	golang.org/x/net v0.29.0 // indirect
	golang.org/x/sys v0.25.0 // indirect
	golang.org/x/term v0.24.0 // indirect
	golang.org/x/time v0.5.0 // indirect
	gonum.org/v1/gonum v0.12.0 // indirect
	google.golang.org/api v0.184.0 // indirect
	google.golang.org/genproto v0.0.0-20240604185151-ef581f913117 // indirect
	google.golang.org/genproto/googleapis/rpc v0.0.0-20240930140551-af27646dc61f // indirect
	gopkg.in/ini.v1 v1.67.0 // indirect
	gotest.tools/v3 v3.5.1 // indirect
	lukechampine.com/blake3 v1.2.1 // indirect
	nhooyr.io/websocket v1.8.6 // indirect
	pgregory.net/rapid v1.1.0 // indirect
	rsc.io/tmplfunc v0.0.3 // indirect
	sigs.k8s.io/yaml v1.4.0 // indirect
)
